type,value,
base_theme,2,
theme_boost_header_color,-12895429,
theme_statuses_color,-13553359,
theme_link_color,-16747570,
theme_icons_color,-10158118,
pref_color_background,-14606047,
pref_color_navigation_bar,true,
pref_color_status_bar,true,
theme_accent,-13136013,
theme_text_color,-2236963,
theme_primary,-14013910,
